module core

go 1.14

require (
	github.com/go-redis/redis v6.15.9+incompatible
	github.com/go-redis/redis/v8 v8.8.0
	github.com/go-redis/redismock/v8 v8.0.6
	github.com/labstack/echo/v4 v4.5.0
	github.com/onsi/gomega v1.16.0 // indirect
	github.com/stretchr/testify v1.7.0
)